Algorithm,MSE,Set
Linear regression,1076.39,Training set
Ridge linear regression,1241.86,Training set
Lasso linear regression,1269.46,Training set
Random forest,1078.09,Training set
Untrained neural network,2282.45,Training set
Neural network,577.89,Training set
Linear regression,2165.5,Test set
Ridge linear regression,1706.44,Test set
Lasso linear regression,1547.5,Test set
Random forest,1371.56,Test set
Untrained neural network,2509.277,Test set
Neural network,1091.29,Test set
