\relax 
\providecommand\hyper@newdestlabel[2]{}
\bibstyle{referencesStyle}
\providecommand\HyperFirstAtBeginDocument{\AtBeginDocument}
\HyperFirstAtBeginDocument{\ifx\hyper@anchor\@undefined
\global\let\oldcontentsline\contentsline
\gdef\contentsline#1#2#3#4{\oldcontentsline{#1}{#2}{#3}}
\global\let\oldnewlabel\newlabel
\gdef\newlabel#1#2{\newlabelxx{#1}#2}
\gdef\newlabelxx#1#2#3#4#5#6{\oldnewlabel{#1}{{#2}{#3}}}
\AtEndDocument{\ifx\hyper@anchor\@undefined
\let\contentsline\oldcontentsline
\let\newlabel\oldnewlabel
\fi}
\fi}
\global\let\hyper@last\relax 
\gdef\HyperFirstAtBeginDocument#1{#1}
\providecommand\HyField@AuxAddToFields[1]{}
\providecommand\HyField@AuxAddToCoFields[2]{}
\providecommand \oddpage@label [2]{}
\citation{Sejnowski2014}
\citation{Markram2006}
\citation{Annecchino2018}
\citation{Larkum2001}
\citation{Sotelo2003}
\citation{Toledo-Rodriguez2004}
\citation{Markram2015}
\@writefile{toc}{\contentsline {section}{\numberline {1}Introduction}{2}{section.1}}
\newlabel{intro}{{1}{2}{Introduction}{section.1}{}}
\citation{Ascoli2007}
\citation{Michiels2019}
\citation{Druckmann2007,Gewaltig2007}
\@writefile{toc}{\contentsline {section}{\numberline {2}Objectives}{3}{section.2}}
\newlabel{sec:Objectives}{{2}{3}{Objectives}{section.2}{}}
\citation{VanGeit2016}
\citation{Cantarelli2018}
\citation{Hines1997}
\citation{Tripathy2014}
\citation{Gouwens2018}
\@writefile{toc}{\contentsline {section}{\numberline {3}Data set preprocessing and features}{4}{section.3}}
\newlabel{sec:methods}{{3}{4}{Data set preprocessing and features}{section.3}{}}
\@writefile{toc}{\contentsline {subsection}{\numberline {3.1}Data set}{4}{subsection.3.1}}
\citation{Gouwens2018}
\citation{Markram2015}
\citation{Scorcioni2008}
\citation{Hines2009}
\@writefile{toc}{\contentsline {subsection}{\numberline {3.2}Feature extraction and selection}{5}{subsection.3.2}}
\citation{BlueBrain/eFEL}
\@writefile{lof}{\contentsline {figure}{\numberline {1}{\ignorespaces Data set features extraction}}{6}{figure.1}}
\newlabel{fig:all_diagram_1_features_extraction}{{1}{6}{Data set features extraction}{figure.1}{}}
\@writefile{lof}{\contentsline {figure}{\numberline {2}{\ignorespaces Selected electrophysiological features}}{7}{figure.2}}
\newlabel{fig:electro_features_figure}{{2}{7}{Selected electrophysiological features}{figure.2}{}}
\citation{allenBiophys}
\citation{allenBiophys}
\citation{AllenMorpho}
\citation{AllenMorpho}
\@writefile{lot}{\contentsline {table}{\numberline {1}{\ignorespaces Electrophysiological features}}{8}{table.1}}
\newlabel{table:electro_features_table}{{1}{8}{Electrophysiological features}{table.1}{}}
\citation{AllenMorpho}
\citation{AllenMorpho}
\citation{Braitenberg1998}
\@writefile{lot}{\contentsline {table}{\numberline {2}{\ignorespaces Morphological features}}{9}{table.2}}
\newlabel{table:morphology_features_table}{{2}{9}{Morphological features}{table.2}{}}
\@writefile{lot}{\contentsline {table}{\numberline {3}{\ignorespaces Metadata features}}{9}{table.3}}
\newlabel{table:metadata_features_table}{{3}{9}{Metadata features}{table.3}{}}
\citation{Brando2019}
\@writefile{toc}{\contentsline {section}{\numberline {4}Machine learning}{10}{section.4}}
\newlabel{sec:machine_learning}{{4}{10}{Machine learning}{section.4}{}}
\@writefile{toc}{\contentsline {subsection}{\numberline {4.1}Multi-output regression with neural networks}{10}{subsection.4.1}}
\@writefile{lof}{\contentsline {figure}{\numberline {3}{\ignorespaces Machine learning supervised training}}{10}{figure.3}}
\newlabel{fig:all_diagram_2_ml_learning}{{3}{10}{Machine learning supervised training}{figure.3}{}}
\@writefile{toc}{\contentsline {subsection}{\numberline {4.2}Including uncertainty in neural networks}{10}{subsection.4.2}}
\citation{Bishop94}
\citation{Gal16}
\newlabel{eq:normal_dist_cond}{{1}{11}{Including uncertainty in neural networks}{equation.4.1}{}}
\newlabel{eq:mdn}{{2}{11}{Including uncertainty in neural networks}{equation.4.2}{}}
\newlabel{eq:mse}{{3}{11}{Including uncertainty in neural networks}{equation.4.3}{}}
\newlabel{eq:nll}{{4}{11}{Including uncertainty in neural networks}{equation.4.4}{}}
\citation{paszke2017automatic}
\@writefile{lof}{\contentsline {figure}{\numberline {4}{\ignorespaces Neural network design}}{12}{figure.4}}
\newlabel{fig:neural_network}{{4}{12}{Neural network design}{figure.4}{}}
\@writefile{toc}{\contentsline {subsection}{\numberline {4.3}Hyperparameters selection}{12}{subsection.4.3}}
\@writefile{lot}{\contentsline {table}{\numberline {4}{\ignorespaces Best neural network hyperparameters}}{12}{table.4}}
\newlabel{table:neural_network_hyperparameters}{{4}{12}{Best neural network hyperparameters}{table.4}{}}
\@writefile{toc}{\contentsline {section}{\numberline {5}Results}{12}{section.5}}
\newlabel{sec:results}{{5}{12}{Results}{section.5}{}}
\citation{scikit-learn}
\citation{glorot2010understanding}
\@writefile{lot}{\contentsline {table}{\numberline {5}{\ignorespaces Group A electrical configurations}}{13}{table.5}}
\newlabel{table:electro_configurations_group_a}{{5}{13}{Group A electrical configurations}{table.5}{}}
\@writefile{lot}{\contentsline {table}{\numberline {6}{\ignorespaces Group B electrical configurations}}{13}{table.6}}
\newlabel{table:electro_configurations_group_b}{{6}{13}{Group B electrical configurations}{table.6}{}}
\@writefile{toc}{\contentsline {subsection}{\numberline {5.1}Metrics (MSE, NLL)}{13}{subsection.5.1}}
\@writefile{lof}{\contentsline {figure}{\numberline {5}{\ignorespaces Group A results for dend\_closest\_dend\_farthest\_amp\_0.9 sweep}}{14}{figure.5}}
\newlabel{fig:results_plots_without_apic}{{5}{14}{Group A results for dend\_closest\_dend\_farthest\_amp\_0.9 sweep}{figure.5}{}}
\@writefile{lot}{\contentsline {table}{\numberline {7}{\ignorespaces Group A results}}{14}{table.7}}
\newlabel{table:results_group_a}{{7}{14}{Group A results}{table.7}{}}
\@writefile{lot}{\contentsline {table}{\numberline {8}{\ignorespaces Group B results}}{14}{table.8}}
\newlabel{table:results_group_b}{{8}{14}{Group B results}{table.8}{}}
\@writefile{lof}{\contentsline {figure}{\numberline {6}{\ignorespaces Example of two electrophysiology predicted sweeps}}{15}{figure.6}}
\newlabel{fig:electro_results_neuron_test_set}{{6}{15}{Example of two electrophysiology predicted sweeps}{figure.6}{}}
\@writefile{toc}{\contentsline {subsection}{\numberline {5.2}Biophysical models simulation and use case}{15}{subsection.5.2}}
\citation{Cannon1998}
\@writefile{lof}{\contentsline {figure}{\numberline {7}{\ignorespaces Machine learning inference in new data}}{16}{figure.7}}
\newlabel{fig:all_diagram_3_ml_inference}{{7}{16}{Machine learning inference in new data}{figure.7}{}}
\@writefile{lof}{\contentsline {figure}{\numberline {8}{\ignorespaces Electrophysiology sweeps predicted in an out-of sample neuron from NeuroMorpho.org.}}{17}{figure.8}}
\newlabel{fig:electro_results_new_neuron_neuromorpho}{{8}{17}{Electrophysiology sweeps predicted in an out-of sample neuron from NeuroMorpho.org}{figure.8}{}}
\@writefile{lof}{\contentsline {figure}{\numberline {9}{\ignorespaces Geppetto UI}}{17}{figure.9}}
\newlabel{fig:all_diagram_4_geppetto}{{9}{17}{Geppetto UI}{figure.9}{}}
\citation{Holst2019,Jouhanneau2019}
\citation{Blundell2015}
\citation{Markram2015}
\@writefile{toc}{\contentsline {section}{\numberline {6}Discussion}{18}{section.6}}
\newlabel{sec:discussion}{{6}{18}{Discussion}{section.6}{}}
\bibdata{references}
\bibcite{allenBiophys}{{1}{2016{a}}{{Allen Institute for Brain Science}}{{}}}
\bibcite{AllenMorpho}{{2}{2016{b}}{{Allen Institute for Brain Science}}{{}}}
\bibcite{Annecchino2018}{{3}{2018}{{Annecchino and Schultz}}{{}}}
\bibcite{Ascoli2007}{{4}{2007}{{Ascoli et~al.}}{{Ascoli, Donohue, and Halavi}}}
\bibcite{Bishop94}{{5}{1994}{{Bishop}}{{}}}
\bibcite{BlueBrain/eFEL}{{6}{2015}{{Blue Brain Project}}{{}}}
\bibcite{Blundell2015}{{7}{2015}{{Blundell et~al.}}{{Blundell, Cornebise, Kavukcuoglu, and Wierstra}}}
\bibcite{Braitenberg1998}{{8}{1998}{{Braitenberg and Sch{\"{u}}z}}{{}}}
\bibcite{Brando2019}{{9}{2019}{{Brando et~al.}}{{Brando, Rodr{\'{i}}guez-Serrano, Ciprian, Maestre, and Vitri{\`{a}}}}}
\bibcite{Cannon1998}{{10}{1998}{{Cannon et~al.}}{{Cannon, Turner, Pyapali, and Wheal}}}
\bibcite{Cantarelli2018}{{11}{2018}{{Cantarelli et~al.}}{{Cantarelli, Marin, Quintana, Earnshaw, Court, Gleeson et~al.}}}
\bibcite{Druckmann2007}{{12}{2007}{{Druckmann et~al.}}{{Druckmann, Banitt, Gidon, Sch{\"{u}}rmann, Markram, and Segev}}}
\bibcite{Gal16}{{13}{2016}{{Gal and Ghahramani}}{{}}}
\bibcite{Gewaltig2007}{{14}{2007}{{Gewaltig and Diesmann}}{{}}}
\bibcite{glorot2010understanding}{{15}{2010}{{Glorot and Bengio}}{{}}}
\bibcite{Gouwens2018}{{16}{2018}{{Gouwens et~al.}}{{Gouwens, Berg, Feng, Sorensen, Zeng, Hawrylycz et~al.}}}
\bibcite{Hines2009}{{17}{2009}{{Hines et~al.}}{{Hines, Davison, and Muller}}}
\bibcite{Hines1997}{{18}{1997}{{Hines and Carnevale}}{{}}}
\bibcite{Holst2019}{{19}{2019}{{Holst et~al.}}{{Holst, Stoy, Yang, Kolb, Kodandaramaiah, Li et~al.}}}
\bibcite{Jouhanneau2019}{{20}{2019}{{Jouhanneau and Poulet}}{{}}}
\bibcite{Larkum2001}{{21}{2001}{{Larkum et~al.}}{{Larkum, Zhu, and Sakmann}}}
\bibcite{Markram2006}{{22}{2006}{{Markram}}{{}}}
\bibcite{Markram2015}{{23}{2015}{{Markram et~al.}}{{Markram, Muller, Ramaswamy, Reimann, Abdellah, Sanchez et~al.}}}
\bibcite{Michiels2019}{{24}{2019}{{Michiels}}{{}}}
\bibcite{paszke2017automatic}{{25}{2017}{{Paszke et~al.}}{{Paszke, Gross, Chintala, Chanan, Yang, DeVito et~al.}}}
\bibcite{scikit-learn}{{26}{2011}{{Pedregosa et~al.}}{{Pedregosa, Varoquaux, Gramfort, Michel, Thirion, Grisel et~al.}}}
\bibcite{Scorcioni2008}{{27}{2008}{{Scorcioni et~al.}}{{Scorcioni, Polavaram, and Ascoli}}}
\bibcite{Sejnowski2014}{{28}{2014}{{Sejnowski et~al.}}{{Sejnowski, Churchland, and Movshon}}}
\bibcite{Sotelo2003}{{29}{2003}{{Sotelo}}{{}}}
\bibcite{Toledo-Rodriguez2004}{{30}{2004}{{Toledo-Rodriguez et~al.}}{{Toledo-Rodriguez, Blumenfeld, Wu, Luo, Attali, Goodman et~al.}}}
\bibcite{Tripathy2014}{{31}{2014}{{Tripathy et~al.}}{{Tripathy, Savitskaya, Burton, Urban, and Gerkin}}}
\bibcite{VanGeit2016}{{32}{2016}{{{Van Geit} et~al.}}{{{Van Geit}, Gevaert, Chindemi, R{\"{o}}ssert, Courcol, Muller et~al.}}}
