\relax 
\providecommand\hyper@newdestlabel[2]{}
\providecommand\HyperFirstAtBeginDocument{\AtBeginDocument}
\HyperFirstAtBeginDocument{\ifx\hyper@anchor\@undefined
\global\let\oldcontentsline\contentsline
\gdef\contentsline#1#2#3#4{\oldcontentsline{#1}{#2}{#3}}
\global\let\oldnewlabel\newlabel
\gdef\newlabel#1#2{\newlabelxx{#1}#2}
\gdef\newlabelxx#1#2#3#4#5#6{\oldnewlabel{#1}{{#2}{#3}}}
\AtEndDocument{\ifx\hyper@anchor\@undefined
\let\contentsline\oldcontentsline
\let\newlabel\oldnewlabel
\fi}
\fi}
\global\let\hyper@last\relax 
\gdef\HyperFirstAtBeginDocument#1{#1}
\providecommand\HyField@AuxAddToFields[1]{}
\providecommand\HyField@AuxAddToCoFields[2]{}
\catcode `"\active 
\catcode `<\active 
\catcode `>\active 
\@nameuse{es@quoting}
\bibstyle{frontiersinSCNS_ENG_HUMS_with_urldate}
\@writefile{toc}{\beamer@endinputifotherversion {3.36pt}}
\@writefile{nav}{\beamer@endinputifotherversion {3.36pt}}
\select@language{spanish}
\@writefile{toc}{\select@language{spanish}}
\@writefile{lof}{\select@language{spanish}}
\@writefile{lot}{\select@language{spanish}}
\@writefile{nav}{\headcommand {\slideentry {0}{0}{1}{1/1}{}{0}}}
\@writefile{nav}{\headcommand {\beamer@framepages {1}{1}}}
\@writefile{nav}{\headcommand {\slideentry {0}{0}{2}{2/2}{}{0}}}
\@writefile{nav}{\headcommand {\beamer@framepages {2}{2}}}
\@writefile{toc}{\beamer@sectionintoc {1}{Objetivos}{3}{0}{1}}
\@writefile{nav}{\headcommand {\sectionentry {1}{Objetivos}{3}{Objetivos}{0}}}
\@writefile{nav}{\headcommand {\beamer@sectionpages {1}{2}}}
\@writefile{nav}{\headcommand {\beamer@subsectionpages {1}{2}}}
\providecommand*\caption@xref[2]{\@setref\relax\@undefined{#1}}
\newlabel{fig:neuro_scales}{{1}{3}{Diferentes escalas en el cerebro\relax }{Doc-Start}{}}
\@writefile{snm}{\beamer@slide {fig:neuro_scales}{3}}
\@writefile{nav}{\headcommand {\slideentry {1}{0}{1}{3/3}{}{0}}}
\@writefile{nav}{\headcommand {\beamer@framepages {3}{3}}}
\newlabel{fig:data_set_simple}{{2}{4}{Esquema de los datos\relax }{Doc-Start}{}}
\@writefile{snm}{\beamer@slide {fig:data_set_simple}{4}}
\@writefile{nav}{\headcommand {\slideentry {1}{0}{2}{4/4}{}{0}}}
\@writefile{nav}{\headcommand {\beamer@framepages {4}{4}}}
\newlabel{fig:morphology_example}{{3}{5}{Morfología\relax }{Doc-Start}{}}
\@writefile{snm}{\beamer@slide {fig:morphology_example}{5}}
\newlabel{fig:electro_example}{{4}{5}{Electrofisiología\relax }{Doc-Start}{}}
\@writefile{snm}{\beamer@slide {fig:electro_example}{5}}
\@writefile{nav}{\headcommand {\slideentry {1}{0}{3}{5/5}{}{0}}}
\@writefile{nav}{\headcommand {\beamer@framepages {5}{5}}}
\newlabel{fig:electro_results_new_neuron_neuromorpho}{{5}{6}{Electrofisiología predicha\relax }{Doc-Start}{}}
\@writefile{snm}{\beamer@slide {fig:electro_results_new_neuron_neuromorpho}{6}}
\@writefile{nav}{\headcommand {\slideentry {1}{0}{4}{6/6}{}{0}}}
\@writefile{nav}{\headcommand {\beamer@framepages {6}{6}}}
\@writefile{toc}{\beamer@sectionintoc {2}{Data set}{7}{0}{2}}
\@writefile{nav}{\headcommand {\sectionentry {2}{Data set}{7}{Data set}{0}}}
\@writefile{nav}{\headcommand {\beamer@sectionpages {3}{6}}}
\@writefile{nav}{\headcommand {\beamer@subsectionpages {3}{6}}}
\@writefile{toc}{\beamer@subsectionintoc {2}{1}{Variables}{7}{0}{2}}
\@writefile{nav}{\headcommand {\beamer@subsectionentry {0}{2}{1}{7}{Variables}}\headcommand {\beamer@subsectionpages {7}{6}}}
\newlabel{fig:all_diagram_1_features_extraction}{{\caption@xref {fig:all_diagram_1_features_extraction}{ on input line 201}}{7}{Variables}{Doc-Start}{}}
\@writefile{snm}{\beamer@slide {fig:all_diagram_1_features_extraction}{7}}
\@writefile{nav}{\headcommand {\slideentry {2}{1}{1}{7/7}{Variables}{0}}}
\@writefile{nav}{\headcommand {\beamer@framepages {7}{7}}}
\newlabel{fig:biophysical_model_features}{{6}{8}{Sweeps y extracción de variables de un modelo biofísico\relax }{Doc-Start}{}}
\@writefile{snm}{\beamer@slide {fig:biophysical_model_features}{8}}
\@writefile{nav}{\headcommand {\slideentry {2}{1}{2}{8/8}{Variables}{0}}}
\@writefile{nav}{\headcommand {\beamer@framepages {8}{8}}}
\newlabel{fig:morphology_example}{{\caption@xref {fig:morphology_example}{ on input line 247}}{9}{Variables}{Doc-Start}{}}
\@writefile{snm}{\beamer@slide {fig:morphology_example}{9}}
\@writefile{nav}{\headcommand {\slideentry {2}{1}{3}{9/9}{Variables}{0}}}
\@writefile{nav}{\headcommand {\beamer@framepages {9}{9}}}
\newlabel{fig:electro_features_figure}{{\caption@xref {fig:electro_features_figure}{ on input line 258}}{10}{Variables}{Doc-Start}{}}
\@writefile{snm}{\beamer@slide {fig:electro_features_figure}{10}}
\@writefile{nav}{\headcommand {\slideentry {2}{1}{4}{10/10}{Variables}{0}}}
\@writefile{nav}{\headcommand {\beamer@framepages {10}{10}}}
\@writefile{toc}{\beamer@subsectionintoc {2}{2}{Preprocesado de los datos}{11}{0}{2}}
\@writefile{nav}{\headcommand {\beamer@subsectionentry {0}{2}{2}{11}{Preprocesado de los datos}}\headcommand {\beamer@subsectionpages {7}{10}}}
\@writefile{nav}{\headcommand {\slideentry {2}{2}{1}{11/11}{Preprocesado de los datos}{0}}}
\@writefile{nav}{\headcommand {\beamer@framepages {11}{11}}}
\@writefile{toc}{\beamer@sectionintoc {3}{Machine learning}{12}{0}{3}}
\@writefile{nav}{\headcommand {\sectionentry {3}{Machine learning}{12}{Machine learning}{0}}}
\@writefile{nav}{\headcommand {\beamer@sectionpages {7}{11}}}
\@writefile{nav}{\headcommand {\beamer@subsectionpages {11}{11}}}
\newlabel{fig:all_diagram_2_ml_learning}{{\caption@xref {fig:all_diagram_2_ml_learning}{ on input line 293}}{12}{Machine learning}{Doc-Start}{}}
\@writefile{snm}{\beamer@slide {fig:all_diagram_2_ml_learning}{12}}
\@writefile{nav}{\headcommand {\slideentry {3}{0}{1}{12/12}{}{0}}}
\@writefile{nav}{\headcommand {\beamer@framepages {12}{12}}}
\newlabel{fig:all_diagram_3_ml_inference.png}{{\caption@xref {fig:all_diagram_3_ml_inference.png}{ on input line 304}}{13}{Machine learning}{Doc-Start}{}}
\@writefile{snm}{\beamer@slide {fig:all_diagram_3_ml_inference.png}{13}}
\@writefile{nav}{\headcommand {\slideentry {3}{0}{2}{13/13}{}{0}}}
\@writefile{nav}{\headcommand {\beamer@framepages {13}{13}}}
\@writefile{toc}{\beamer@subsectionintoc {3}{1}{Redes neuronales}{14}{0}{3}}
\@writefile{nav}{\headcommand {\beamer@subsectionentry {0}{3}{1}{14}{Redes neuronales}}\headcommand {\beamer@subsectionpages {12}{13}}}
\newlabel{fig:neural_network_basic}{{\caption@xref {fig:neural_network_basic}{ on input line 328}}{14}{Redes neuronales}{Doc-Start}{}}
\@writefile{snm}{\beamer@slide {fig:neural_network_basic}{14}}
\newlabel{fig:neural_network}{{\caption@xref {fig:neural_network}{ on input line 328}}{14}{Redes neuronales}{Doc-Start}{}}
\@writefile{snm}{\beamer@slide {fig:neural_network}{14}}
\@writefile{nav}{\headcommand {\slideentry {3}{1}{1}{14/14}{Redes neuronales}{0}}}
\@writefile{nav}{\headcommand {\beamer@framepages {14}{14}}}
\newlabel{fig:results_plots_without_apic_point_estimates}{{\caption@xref {fig:results_plots_without_apic_point_estimates}{ on input line 348}}{15}{Redes neuronales}{Doc-Start}{}}
\@writefile{snm}{\beamer@slide {fig:results_plots_without_apic_point_estimates}{15}}
\newlabel{fig:results_plots_without_apic}{{\caption@xref {fig:results_plots_without_apic}{ on input line 348}}{15}{Redes neuronales}{Doc-Start}{}}
\@writefile{snm}{\beamer@slide {fig:results_plots_without_apic}{15}}
\@writefile{nav}{\headcommand {\slideentry {3}{1}{2}{15/15}{Redes neuronales}{0}}}
\@writefile{nav}{\headcommand {\beamer@framepages {15}{15}}}
\@writefile{toc}{\beamer@subsectionintoc {3}{2}{Regresi\IeC {\'o}n multi-output con incertidumbre en la salida}{16}{0}{3}}
\@writefile{nav}{\headcommand {\beamer@subsectionentry {0}{3}{2}{16}{Regresi\IeC {\'o}n multi-output con incertidumbre en la salida}}\headcommand {\beamer@subsectionpages {14}{15}}}
\newlabel{fig:neural_network.png}{{7}{16}{}{Doc-Start}{}}
\@writefile{snm}{\beamer@slide {fig:neural_network.png}{16}}
\@writefile{nav}{\headcommand {\slideentry {3}{2}{1}{16/16}{Regresi\IeC {\'o}n multi-output con incertidumbre en la salida}{0}}}
\@writefile{nav}{\headcommand {\beamer@framepages {16}{16}}}
\@writefile{toc}{\beamer@sectionintoc {4}{Resultados}{17}{0}{4}}
\@writefile{nav}{\headcommand {\sectionentry {4}{Resultados}{17}{Resultados}{0}}}
\@writefile{nav}{\headcommand {\beamer@sectionpages {12}{16}}}
\@writefile{nav}{\headcommand {\beamer@subsectionpages {16}{16}}}
\@writefile{toc}{\beamer@subsectionintoc {4}{1}{Medidas (MSE, NLL)}{17}{0}{4}}
\@writefile{nav}{\headcommand {\beamer@subsectionentry {0}{4}{1}{17}{Medidas (MSE, NLL)}}\headcommand {\beamer@subsectionpages {17}{16}}}
\newlabel{fig:benchmark_a_mse_plot}{{8}{17}{Group A results (MSE)}{Doc-Start}{}}
\@writefile{snm}{\beamer@slide {fig:benchmark_a_mse_plot}{17}}
\newlabel{fig:benchmark_b_mse_plot}{{9}{17}{Group B results (MSE)}{Doc-Start}{}}
\@writefile{snm}{\beamer@slide {fig:benchmark_b_mse_plot}{17}}
\@writefile{nav}{\headcommand {\slideentry {4}{1}{1}{17/17}{Medidas (MSE, NLL)}{0}}}
\@writefile{nav}{\headcommand {\beamer@framepages {17}{17}}}
\newlabel{fig:benchmark_a_nll_plot}{{10}{18}{Group A results (NLL)}{Doc-Start}{}}
\@writefile{snm}{\beamer@slide {fig:benchmark_a_nll_plot}{18}}
\newlabel{fig:benchmark_b_nll_plot}{{11}{18}{Group B results (NLL)}{Doc-Start}{}}
\@writefile{snm}{\beamer@slide {fig:benchmark_b_nll_plot}{18}}
\@writefile{nav}{\headcommand {\slideentry {4}{1}{2}{18/18}{Medidas (MSE, NLL)}{0}}}
\@writefile{nav}{\headcommand {\beamer@framepages {18}{18}}}
\newlabel{fig:electro_results_neuron_test_set}{{\caption@xref {fig:electro_results_neuron_test_set}{ on input line 429}}{19}{Medidas (MSE, NLL)}{Doc-Start}{}}
\@writefile{snm}{\beamer@slide {fig:electro_results_neuron_test_set}{19}}
\@writefile{nav}{\headcommand {\slideentry {4}{1}{3}{19/19}{Medidas (MSE, NLL)}{0}}}
\@writefile{nav}{\headcommand {\beamer@framepages {19}{19}}}
\newlabel{fig:electro_results_new_neuron_neuromorpho}{{\caption@xref {fig:electro_results_new_neuron_neuromorpho}{ on input line 439}}{20}{Medidas (MSE, NLL)}{Doc-Start}{}}
\@writefile{snm}{\beamer@slide {fig:electro_results_new_neuron_neuromorpho}{20}}
\@writefile{nav}{\headcommand {\slideentry {4}{1}{4}{20/20}{Medidas (MSE, NLL)}{0}}}
\@writefile{nav}{\headcommand {\beamer@framepages {20}{20}}}
\@writefile{toc}{\beamer@subsectionintoc {4}{2}{Simulaci\IeC {\'o}n de modelos biof\IeC {\'\i }sicos}{21}{0}{4}}
\@writefile{nav}{\headcommand {\beamer@subsectionentry {0}{4}{2}{21}{Simulaci\IeC {\'o}n de modelos biof\IeC {\'\i }sicos}}\headcommand {\beamer@subsectionpages {17}{20}}}
\newlabel{fig:all_diagram_3_ml_inference.png}{{12}{21}{Extracción de variables $\Rightarrow $ Inferencia $\Rightarrow $ Creación del modelo biofísico con las variable morfológicas originales y las electrofisiológicas predichas.\relax }{Doc-Start}{}}
\@writefile{snm}{\beamer@slide {fig:all_diagram_3_ml_inference.png}{21}}
\@writefile{nav}{\headcommand {\slideentry {4}{2}{1}{21/21}{Simulaci\IeC {\'o}n de modelos biof\IeC {\'\i }sicos}{0}}}
\@writefile{nav}{\headcommand {\beamer@framepages {21}{21}}}
\newlabel{fig:all_diagram_4_geppetto}{{\caption@xref {fig:all_diagram_4_geppetto}{ on input line 462}}{22}{Simulación de modelos biofísicos}{Doc-Start}{}}
\@writefile{snm}{\beamer@slide {fig:all_diagram_4_geppetto}{22}}
\@writefile{nav}{\headcommand {\slideentry {4}{2}{2}{22/22}{Simulaci\IeC {\'o}n de modelos biof\IeC {\'\i }sicos}{0}}}
\@writefile{nav}{\headcommand {\beamer@framepages {22}{22}}}
\citation{Blundell2015}
\citation{Jun2017}
\@writefile{toc}{\beamer@sectionintoc {5}{Discusi\IeC {\'o}n}{23}{0}{5}}
\@writefile{nav}{\headcommand {\sectionentry {5}{Discusi\IeC {\'o}n}{23}{Discusi\IeC {\'o}n}{0}}}
\@writefile{nav}{\headcommand {\beamer@sectionpages {17}{22}}}
\@writefile{nav}{\headcommand {\beamer@subsectionpages {21}{22}}}
\@writefile{nav}{\headcommand {\slideentry {5}{0}{1}{23/23}{}{0}}}
\@writefile{nav}{\headcommand {\beamer@framepages {23}{23}}}
\@writefile{nav}{\headcommand {\slideentry {5}{0}{2}{24/24}{}{0}}}
\@writefile{nav}{\headcommand {\beamer@framepages {24}{24}}}
\bibdata{references}
\bibcite{Blundell2015}{{1}{2015}{{Blundell et~al.}}{{Blundell, Cornebise, Kavukcuoglu, and Wierstra}}}
\bibcite{Jun2017}{{2}{2017}{{Jun et~al.}}{{Jun, Steinmetz, Siegle, Denman, Bauza, Barbarits et~al.}}}
\@writefile{nav}{\headcommand {\sectionentry {6}{Referencias}{25}{Referencias}{0}}}
\@writefile{nav}{\headcommand {\beamer@sectionpages {23}{24}}}
\@writefile{nav}{\headcommand {\beamer@subsectionpages {23}{24}}}
\@writefile{nav}{\headcommand {\slideentry {6}{0}{0}{25/25}{}{0}}}
\@writefile{nav}{\headcommand {\beamer@framepages {25}{25}}}
\@writefile{nav}{\headcommand {\slideentry {6}{0}{1}{26/26}{}{0}}}
\@writefile{nav}{\headcommand {\beamer@framepages {26}{26}}}
\@writefile{nav}{\headcommand {\beamer@partpages {1}{26}}}
\@writefile{nav}{\headcommand {\beamer@subsectionpages {23}{26}}}
\@writefile{nav}{\headcommand {\beamer@sectionpages {23}{26}}}
\@writefile{nav}{\headcommand {\beamer@documentpages {26}}}
\@writefile{nav}{\headcommand {\def \inserttotalframenumber {26}}}
