apic_closest_soma_closest_amp_0.5__AP_height,apic_closest_soma_closest_amp_0.5__AP_width,apic_closest_soma_closest_amp_0.5__Spikecount,apic_closest_soma_closest_amp_0.5__time_to_first_spike,apic_closest_soma_closest_amp_0.5__time_to_last_spike,apic_closest_soma_closest_amp_0.9__AP_height,apic_closest_soma_closest_amp_0.9__AP_width,apic_closest_soma_closest_amp_0.9__Spikecount,apic_closest_soma_closest_amp_0.9__time_to_first_spike,apic_closest_soma_closest_amp_0.9__time_to_last_spike,dend_closest_dend_farthest_amp_0.5__AP_height,dend_closest_dend_farthest_amp_0.5__AP_width,dend_closest_dend_farthest_amp_0.5__Spikecount,dend_closest_dend_farthest_amp_0.5__time_to_first_spike,dend_closest_dend_farthest_amp_0.5__time_to_last_spike,dend_closest_dend_farthest_amp_0.9__AP_height,dend_closest_dend_farthest_amp_0.9__AP_width,dend_closest_dend_farthest_amp_0.9__Spikecount,dend_closest_dend_farthest_amp_0.9__time_to_first_spike,dend_closest_dend_farthest_amp_0.9__time_to_last_spike,dend_closest_soma_closest_amp_0.4__AP_height,dend_closest_soma_closest_amp_0.4__AP_width,dend_closest_soma_closest_amp_0.4__Spikecount,dend_closest_soma_closest_amp_0.4__time_to_first_spike,dend_closest_soma_closest_amp_0.4__time_to_last_spike,specimen_id
1.82,0.15,1.28,9.52,31.09,1.59,0.18,2.28,8.83,44.41,2.95,0.42,3.75,22.09,72.99,4.19,0.47,6.08,25.21,91.48,6.31,0.43,4.8,38.26,120.28,323540736.0
1.6,0.14,1.16,9.46,28.0,1.48,0.16,2.1,8.43,41.94,7.77,0.71,9.75,43.46,169.36,8.16,0.72,14.08,42.79,176.9,9.26,0.7,10.03,55.87,203.98,396608557.0
11.11,0.74,7.26,47.03,171.46,8.27,0.78,10.58,41.46,189.65,12.28,0.87,7.28,45.0,172.64,12.84,0.9,10.28,43.57,175.65,11.48,0.79,8.38,58.02,205.18,395830185.0
5.59,0.93,5.5,47.22,161.5,3.66,0.95,7.46,41.67,167.3,6.24,1.13,5.73,46.5,167.82,7.56,1.14,7.49,47.94,166.88,6.81,0.96,6.42,58.25,187.91,321906005.0
1.98,0.14,1.15,10.06,31.02,1.43,0.15,1.98,8.31,40.09,3.3,0.58,6.11,33.23,113.64,3.87,0.64,7.57,32.39,110.88,9.51,0.68,10.31,55.42,201.99,482516713.0
1.84,0.17,1.5,10.11,31.52,1.27,0.18,2.84,8.47,40.42,14.84,1.03,16.68,46.43,212.69,15.47,1.0,16.66,45.9,197.05,6.52,1.3,16.56,57.55,238.66,327644217.0
2.45,0.16,1.43,11.15,37.37,1.58,0.16,2.24,9.03,44.07,0.83,0.4,2.6,18.19,54.09,1.71,0.46,2.67,19.47,52.71,7.41,0.51,6.76,43.6,147.19,330080937.0
0.84,0.07,0.68,5.64,14.95,0.8,0.07,1.57,4.2,21.87,7.65,0.76,12.24,43.81,185.16,8.2,0.79,14.23,44.29,175.69,9.67,0.92,14.68,60.11,241.02,474267418.0
11.5,0.79,7.19,50.93,184.56,8.72,0.86,10.62,45.21,206.1,13.56,0.92,6.46,46.32,174.68,14.27,0.94,9.34,44.65,182.44,11.48,0.81,7.37,59.19,204.54,382982932.0
6.09,1.23,7.23,55.06,189.97,3.91,1.27,9.29,48.97,188.87,5.8,1.65,6.22,52.18,203.78,6.32,1.6,7.25,50.0,184.16,6.36,1.19,6.35,60.39,191.74,318808427.0
1.08,0.07,0.48,6.07,16.52,0.89,0.08,1.2,4.71,24.37,3.79,0.67,8.28,40.16,146.17,4.46,0.76,9.56,39.28,134.54,10.77,0.81,13.59,62.39,241.59,478396248.0
10.22,0.77,7.57,48.6,179.27,7.14,0.77,11.18,42.02,191.03,10.91,0.88,7.92,44.58,176.78,11.51,0.91,10.72,43.22,170.18,10.73,0.8,8.49,59.1,206.77,479179020.0
0.93,0.07,0.49,5.43,16.02,0.61,0.06,1.25,3.4,19.79,7.97,0.69,11.48,48.04,196.59,8.17,0.71,16.63,46.75,196.11,11.44,0.74,12.41,61.71,232.76,313862306.0
0.94,0.04,0.19,3.56,5.96,2.3,0.12,1.23,6.46,30.48,14.43,0.77,13.03,55.8,224.21,14.1,0.7,21.73,51.52,243.11,9.5,0.63,9.38,56.71,204.24,324266189.0
5.75,0.87,4.54,48.27,164.45,3.74,0.89,6.58,41.96,174.34,7.35,0.91,4.64,44.77,148.32,9.17,0.93,6.89,45.73,157.07,6.9,0.89,5.95,60.0,193.25,476218657.0
9.03,0.93,7.33,55.68,198.25,5.78,0.95,10.49,47.63,207.32,8.98,0.85,5.59,42.8,153.72,10.8,0.92,7.78,47.79,163.23,8.56,0.84,6.82,58.54,193.67,480169178.0
1.84,0.13,0.98,8.78,27.14,1.3,0.14,1.83,7.34,36.46,2.23,0.47,4.3,26.66,85.14,2.94,0.53,6.01,26.97,90.9,8.52,0.55,7.93,48.77,167.89,318331342.0
1.92,0.11,0.82,7.96,24.02,1.34,0.11,1.38,6.33,31.52,-0.23,0.43,2.11,21.12,53.21,0.41,0.5,1.72,19.86,46.16,8.93,0.57,8.85,50.96,180.62,478888083.0
10.7,0.54,5.63,38.97,142.78,10.83,0.72,9.01,42.0,192.62,17.85,0.78,6.0,46.76,151.89,18.35,0.8,10.53,46.07,193.67,11.27,0.62,6.28,51.67,178.08,320668879.0
11.65,0.85,8.72,51.62,191.32,8.06,0.85,12.71,44.34,204.53,11.25,0.98,8.38,45.82,184.91,11.81,1.01,10.75,44.01,174.35,11.39,0.84,9.15,59.15,210.29,478499902.0
1.4,0.09,0.97,6.3,21.91,1.26,0.1,1.88,5.71,32.63,-1.83,0.08,-2.27,-3.38,-30.54,0.22,0.19,-2.14,4.45,-2.1,3.23,0.13,-0.01,17.95,31.87,321923685.0
10.09,0.93,8.53,51.03,186.87,6.73,0.94,11.91,44.26,194.82,9.26,1.16,7.94,46.35,187.41,9.87,1.17,9.74,45.22,173.95,10.37,0.92,8.51,58.74,204.13,468193142.0
