apic_closest_soma_closest_amp_0.5__AP_height,apic_closest_soma_closest_amp_0.5__AP_width,apic_closest_soma_closest_amp_0.5__Spikecount,apic_closest_soma_closest_amp_0.5__time_to_first_spike,apic_closest_soma_closest_amp_0.5__time_to_last_spike,apic_closest_soma_closest_amp_0.9__AP_height,apic_closest_soma_closest_amp_0.9__AP_width,apic_closest_soma_closest_amp_0.9__Spikecount,apic_closest_soma_closest_amp_0.9__time_to_first_spike,apic_closest_soma_closest_amp_0.9__time_to_last_spike,dend_closest_dend_farthest_amp_0.5__AP_height,dend_closest_dend_farthest_amp_0.5__AP_width,dend_closest_dend_farthest_amp_0.5__Spikecount,dend_closest_dend_farthest_amp_0.5__time_to_first_spike,dend_closest_dend_farthest_amp_0.5__time_to_last_spike,dend_closest_dend_farthest_amp_0.9__AP_height,dend_closest_dend_farthest_amp_0.9__AP_width,dend_closest_dend_farthest_amp_0.9__Spikecount,dend_closest_dend_farthest_amp_0.9__time_to_first_spike,dend_closest_dend_farthest_amp_0.9__time_to_last_spike,dend_closest_soma_closest_amp_0.4__AP_height,dend_closest_soma_closest_amp_0.4__AP_width,dend_closest_soma_closest_amp_0.4__Spikecount,dend_closest_soma_closest_amp_0.4__time_to_first_spike,dend_closest_soma_closest_amp_0.4__time_to_last_spike,specimen_id
1.76,0.14,1.19,10.71,31.78,1.75,0.15,2.01,7.91,41.67,3.13,0.47,4.49,25.11,88.92,4.05,0.5,6.86,27.63,97.46,7.38,0.52,7.09,47.5,163.31,323540736.0
1.85,0.15,1.23,10.91,33.15,1.79,0.15,2.03,8.6,41.43,4.43,0.57,6.39,33.64,128.92,5.11,0.59,9.62,34.05,130.71,8.94,0.62,8.82,52.97,189.92,396608557.0
9.12,0.68,6.39,43.05,155.94,6.84,0.74,9.2,38.56,173.37,10.46,0.84,6.25,43.49,171.64,11.72,0.85,8.86,43.49,170.51,9.97,0.78,7.48,56.8,193.58,395830185.0
6.02,0.98,5.23,44.45,155.1,3.93,1.03,6.81,39.4,155.97,5.28,1.19,5.49,46.76,179.1,6.47,1.16,7.63,45.96,173.59,7.37,0.99,6.24,58.51,189.91,321906005.0
1.75,0.14,1.19,10.6,31.09,1.77,0.15,1.92,8.14,40.01,4.06,0.6,6.66,34.22,131.89,4.77,0.63,9.82,34.37,131.16,9.08,0.66,9.85,54.19,198.48,482516713.0
2.02,0.17,1.59,12.69,41.02,2.03,0.19,2.4,10.56,49.56,8.56,0.77,10.48,41.63,176.51,8.9,0.77,12.16,41.46,167.55,8.74,0.84,12.19,55.78,213.33,327644217.0
1.77,0.14,1.22,11.1,32.57,1.75,0.15,2.03,8.25,42.34,3.17,0.5,4.69,26.67,95.75,4.1,0.52,7.03,28.68,101.38,7.65,0.55,7.5,48.64,168.49,330080937.0
1.83,0.15,1.29,11.09,33.09,1.85,0.16,1.96,8.58,42.11,5.92,0.7,9.02,39.32,162.24,6.38,0.72,11.89,38.78,155.95,9.53,0.76,11.94,56.66,216.38,474267418.0
10.45,0.59,6.6,44.0,160.76,8.07,0.62,10.18,39.48,182.7,13.39,0.82,6.48,43.94,177.66,14.27,0.84,9.42,43.32,179.6,11.08,0.72,7.48,58.11,196.22,382982932.0
6.51,1.17,6.07,48.56,172.34,4.04,1.23,7.77,43.42,169.65,4.21,1.42,5.68,47.6,185.51,5.09,1.39,7.5,46.61,179.2,7.19,1.11,6.18,59.03,192.99,318808427.0
1.64,0.13,1.11,9.92,28.37,1.74,0.13,1.69,7.41,36.98,3.89,0.62,7.02,35.72,138.41,4.58,0.66,10.49,35.41,135.7,9.56,0.68,10.64,55.37,206.1,478396248.0
9.67,0.63,6.78,42.43,156.45,7.06,0.66,10.09,37.79,172.21,10.78,0.81,6.83,43.17,173.35,11.78,0.82,9.57,42.98,169.59,10.34,0.75,7.85,57.01,194.6,479179020.0
1.79,0.15,1.21,10.85,32.85,1.79,0.15,1.97,8.4,40.59,5.8,0.6,7.59,38.03,152.54,6.32,0.61,11.36,37.63,152.23,9.93,0.65,9.36,55.07,201.56,313862306.0
2.1,0.17,1.45,12.61,40.31,1.9,0.18,2.34,10.65,47.44,7.47,0.67,8.73,42.26,173.26,7.92,0.68,12.36,41.63,170.04,10.04,0.71,9.97,56.73,208.55,324266189.0
6.57,0.71,4.75,43.69,150.94,4.59,0.78,6.54,37.9,162.22,7.58,0.79,4.99,42.78,159.38,9.2,0.78,7.05,43.01,154.42,7.81,0.81,6.28,56.92,187.36,476218657.0
7.55,0.76,5.88,43.27,154.52,5.33,0.85,7.92,38.14,161.73,7.05,0.81,5.24,41.52,157.09,9.02,0.82,7.43,43.04,155.87,8.35,0.82,6.8,55.37,182.34,480169178.0
1.76,0.14,1.17,10.44,31.08,1.76,0.15,1.93,7.98,39.79,3.79,0.54,5.87,30.97,116.2,4.54,0.57,8.92,31.8,119.67,8.57,0.6,8.72,51.69,184.62,318331342.0
1.87,0.15,1.27,11.21,33.69,1.79,0.16,2.08,8.81,42.39,3.69,0.56,5.76,32.09,119.72,4.5,0.59,8.86,32.77,121.79,8.71,0.61,8.66,52.41,186.05,478888083.0
8.79,0.58,5.42,45.27,159.9,6.64,0.61,8.22,39.68,178.2,12.29,0.76,5.84,43.95,169.2,13.0,0.76,8.61,43.3,168.28,9.64,0.7,6.54,58.82,192.29,320668879.0
10.21,0.75,7.77,43.49,163.53,7.68,0.81,11.25,39.43,178.62,10.23,0.91,7.05,43.51,176.11,11.57,0.93,9.76,43.45,173.23,10.59,0.81,8.31,56.16,195.65,478499902.0
1.71,0.13,1.17,10.58,31.33,1.72,0.15,1.99,7.76,41.2,2.02,0.4,2.93,20.09,62.23,3.14,0.43,5.04,23.75,75.64,6.67,0.44,5.63,44.25,144.99,321923685.0
9.94,0.9,8.23,46.35,176.66,6.94,0.92,11.85,41.44,182.93,7.95,1.07,7.41,44.0,181.67,8.89,1.07,9.81,43.7,172.17,9.77,0.9,8.08,57.05,199.1,468193142.0
